<svg width="600" height="450" viewBox="0 0 600 450" fill="none" xmlns="http://www.w3.org/2000/svg">
<path fill-rule="evenodd" clip-rule="evenodd" d="M180.487 111.328C182.273 111.177 186.891 107.61 184.468 105.805C182.023 103.985 180.266 110.086 180.487 111.328ZM87.4485 125.011C87.9152 124.929 87.7115 122.374 86.9764 122.048C84.6564 121.018 84.4605 124.889 84.4039 125.925C84.3333 127.232 84.1696 130.915 86.9904 129.905C88.5919 129.332 87.5982 125.991 87.4485 125.011ZM224.414 136.947C224.351 139.228 228.958 143.613 230.676 140.982C232.121 138.772 224.533 132.408 224.414 136.947ZM61.5235 85.5143C62.8584 88.9193 69.4599 84.2786 69.7053 81.7809C70.209 76.6658 61.4546 82.1109 61.5235 85.5143ZM116.601 100.195C119.676 99.9426 123.721 96.0341 126.686 94.5738C128.692 93.5858 134.151 92.408 134.744 90.1647C135.261 88.2153 125.999 92.3878 125.208 92.7584C121.574 94.4608 118.298 96.4014 116.601 100.195ZM347.4 73.2422C349.851 71.3475 352.83 70.1252 355.971 70.2052C357.54 70.2453 360.812 71.2266 360.935 68.5139C361.135 64.1025 347.282 69.4824 345.117 70.3477C345.878 71.3131 346.64 72.2776 347.4 73.2422ZM194.531 245.149C192.733 242.163 189.5 240.437 187.068 237.891C187.959 242.072 185.95 245.792 184.57 249.609C187.891 248.122 191.21 246.635 194.531 245.149ZM506.721 308.789C507.712 305.474 508.704 302.176 509.863 298.911C511.159 295.255 511.803 294.939 508.701 292.383C506.127 297.249 503.551 302.116 500.976 306.983C502.809 307.762 504.722 308.521 506.721 308.789ZM240.234 68.7684C236.825 64.9257 220.847 64.6845 222.825 73.1656C223.514 76.1271 227.443 72.981 229.903 72.2908C232.346 71.6053 239.261 71.5142 240.234 68.7684ZM239.648 123.173C239.235 122.192 238.41 118.653 237.185 118.374C235.992 118.102 231.285 121.814 230.4 122.381C225.986 125.209 221.684 128.252 217.382 131.25C219.029 131.25 220.525 130.664 222.162 130.651C224.107 130.634 225.502 131.433 227.399 130.977C231.474 129.999 236.204 125.484 239.648 123.173ZM244.064 35.4904C244.447 33.7327 264.422 39.009 266.823 39.9751C268.131 40.5006 274.88 44.0085 273.429 38.7216C272.604 35.7103 264.805 33.4148 262.307 32.5895C255.953 30.4925 249.255 29.0009 242.49 29.3468C241.176 29.4135 231.228 29.9876 235.382 33.9864C236.814 35.3635 241.945 34.9295 244.064 35.4904ZM248.437 276.98C252.159 278.811 255.959 280.212 259.849 281.644C261.577 282.28 264.269 283.945 266.175 283.527C267.737 283.184 268.237 280.806 269.057 279.214C272.056 273.391 275.637 268.694 280.078 263.893C278.016 262.389 267.55 269.022 264.96 270.001C262.367 270.981 259.921 271.969 257.384 273.14C254.995 274.243 250.281 275.229 248.437 276.98ZM314.334 227.344C319.758 224.889 324.899 220.537 329.347 216.64C334.455 212.165 339.034 207.476 342.773 201.686C340.523 201.801 335.555 209.038 335.5 201.159C335.471 197.139 340.98 193.18 342.689 189.452C338.436 187.051 334.538 201.398 329.658 197.92C324.957 194.569 332.375 183.048 333.804 179.413C331.046 177.578 315.336 198.113 313.062 200.741C311.64 202.385 308.277 204.575 307.474 206.493C306.996 207.636 306.928 211.26 307.159 212.31C307.64 214.507 310.077 217.138 311.162 219.183C312.535 221.773 313.731 224.464 314.334 227.344ZM538.567 301.378C533.877 294.757 538.722 291.87 542.536 286.375C545.586 281.979 548.393 277.134 550.326 272.226C555.162 259.948 559.525 248.534 561.914 235.547C558.627 237.047 556.572 242.758 554.928 245.766C552.717 249.812 550.772 254.057 548.315 257.976C543.716 265.31 539.201 273.134 533.352 279.491C530.702 282.371 528.458 285.612 525.4 288.208C524.003 289.394 521.331 290.367 520.302 291.85C519.33 293.25 520.417 294.145 520.048 295.817C519.669 297.533 517.934 299.362 517.189 301.014C516.211 303.184 515.3 305.358 514.208 307.48C513.017 309.794 512.692 311.004 512.371 313.265C512.02 315.738 513.096 315.994 510.937 318.273C514.85 319.998 518.762 321.723 522.675 323.448C523.995 324.031 525.316 324.613 526.636 325.195C526.915 324.674 527.193 324.152 527.471 323.63C528.547 322.586 529.535 320.01 530.151 318.631C532.721 312.874 535.625 307.095 538.567 301.378ZM160.734 273.586C149.625 302.835 188.665 327.463 212.697 332.91C216.026 333.664 219.274 334.651 222.588 335.461C226.2 336.345 229.409 336.169 233.015 336.539C235.884 336.832 237.251 339.049 239.955 339.66C244.473 340.68 244.196 337.285 244.52 333.647C245.891 318.223 253.763 303.34 262.095 290.47C258.289 289.108 254.518 287.622 250.761 286.131C247.547 284.855 242.624 281.268 239.167 281.078C236.611 280.939 232.716 283.121 230.234 284.079C226.099 285.675 221.952 287.034 217.643 288.122C210.108 290.024 201.723 292.618 193.926 292.814C191.678 292.871 185.512 293.918 183.895 292.529C180.81 289.88 185.091 287.672 187.674 286.726C203.063 281.091 219.403 278.695 234.836 272.917C242.778 269.943 250.637 266.623 258.629 263.693C265.518 261.168 272.734 258.933 279.391 255.827C288.183 251.727 297.013 246.618 304.625 240.6C306.149 239.396 309.342 237.607 310.386 235.862C311.306 234.326 311.191 235.858 311 233.995C310.863 232.657 309.226 230.844 308.553 229.58C306.044 224.867 303.777 220.026 301.87 215.039C289.726 220.248 278.173 227.338 266.207 232.904C254.164 238.507 240.579 242.46 227.695 245.613C222.211 246.955 215.907 247.379 210.878 250.03C208.741 251.156 206.628 252.459 204.34 253.111C203.664 254.408 202.999 254.662 202.343 253.873C201.932 253.412 201.401 253.217 200.75 253.289C199.35 253.526 197.922 254.187 196.613 254.695C189.987 257.264 183.642 260.481 177.351 263.763C174.369 265.318 171.311 266.849 168.457 268.625C166.928 269.577 165.557 270.538 164.305 271.845C162.805 273.412 163.162 274.7 160.734 273.586ZM410.73 99.92C413.538 99.9654 416.096 98.4448 419.024 98.5293C423.628 98.6624 427.273 102.232 429.945 105.674C435.232 112.486 433.884 120.702 431.228 128.325C429.957 131.967 428.212 135.464 426.032 138.653C424.102 141.476 420.652 144.146 419.305 147.289C417.083 152.473 421.565 150.269 424.309 149.161C427.76 147.768 430.994 146.036 433.923 143.704C446.976 133.308 456.905 118.859 460.231 102.264C461.854 94.1673 461.729 84.702 456.089 78.0937C450.933 72.0511 442.032 70.0767 434.423 71.1971C426.198 72.4092 418.744 75.8928 412.046 80.3774C410.101 81.6804 408.32 83.1027 406.493 84.56C404.097 86.4718 402.661 86.5222 403.261 89.5187C403.706 91.7464 404.919 94.0544 405.701 96.192C407.164 100.196 406.631 101.232 410.73 99.92ZM419.681 168.944L419.113 169.915C423.029 170.101 426.677 166.647 430.014 164.96C434.348 162.768 438.197 159.778 441.996 156.759C448.695 151.433 455.481 145.432 460.467 138.44C471.645 122.768 481.798 102.898 478.747 83.0281C475.46 61.6124 456.729 53.3689 436.77 56.2039C427.776 57.4813 419.745 61.4971 411.695 65.5738C407.638 67.6292 404.214 70.2953 400.496 72.8761C398.567 74.2161 396.807 74.3899 396.681 76.7327C396.586 78.4982 399.638 82.4905 400.464 84.0903C410.571 73.78 421.462 65.2506 436.725 64.7235C454.884 64.0966 465.621 81.3138 465.542 97.8008C465.464 113.97 458.49 129.523 447.373 141.143C442.32 146.424 437.503 150.662 431.3 154.516C428.207 156.437 425.926 158.162 422.468 159.438C420.023 160.341 420.277 159.865 419.653 162.129C419.124 164.05 419.665 166.949 419.681 168.944ZM321.014 388.618C320.778 391.532 320.186 394.4 319.527 397.242C319.29 398.263 317.957 401.485 318.191 402.632C318.577 404.529 318.063 403.31 319.725 404.299C321.458 405.332 323.476 405.269 325.374 405.583C326.546 405.777 330.838 407.797 331.559 407.478C332.821 406.92 332.781 404.954 334.166 404.174C336.053 403.112 338.833 404.022 340.613 404.853C345.371 407.073 348.64 411.667 353.244 414.182C361.42 418.647 371.121 421.119 380.243 422.139C385.185 422.692 390.241 423.661 395.122 422.504C398.967 421.591 403.964 421.675 406.054 417.55C387.479 412.441 359.128 406.19 351.784 384.874C347.792 388.494 341.119 386.544 336.294 386.044C330.987 385.495 326.243 385.623 321.389 383.203C321.034 385.105 320.926 386.684 321.014 388.618ZM156.553 256.595C165.297 257.124 173.587 252.986 178.968 246.004C180.292 244.285 181.65 242.529 182.446 240.492C182.618 239.976 182.79 239.459 182.963 238.943C183.797 237.517 183.432 236.844 181.867 236.925C180.985 235.716 178.749 235.309 179.385 233.117C179.864 231.463 181.632 231.436 183.168 230.916C182.403 229.631 181.945 228.986 180.85 227.842C178.004 230.403 172.839 235.428 170.839 229.546C169.879 226.722 171.57 224.023 171.151 221.3C170.978 220.173 169.55 217.296 168.723 216.622C164.315 213.033 157.966 214.519 153.289 216.631C150.066 218.087 149.372 218.77 148.846 222.108C148.312 225.502 147.817 228.894 147.224 232.278C149.159 231.27 149.511 229.093 150.772 227.525C151.245 228.385 151.717 229.246 152.191 230.106C152.857 229.733 153.479 229.753 154.056 230.166C154.989 231.601 154.401 233.729 154.115 235.234C157.227 234.943 158.543 238.416 155.405 239.822C152.154 241.279 150.688 237.307 150.578 234.735C149.366 236.183 148.12 235.408 147.274 236.152C146.43 236.896 146.097 238.447 145.796 240.146C145.303 242.937 144.039 246.963 145.208 249.763C146.944 253.921 152.48 256.085 156.553 256.595ZM409.928 123.032C407.035 127.056 402.102 132.323 401.07 137.184C404.257 135.314 410.995 126.316 412.73 133.484C413.727 137.598 408.616 142.501 407.361 146.484C412.386 144.831 415.966 139.652 419.102 135.656C423.1 130.56 427.182 123.842 428.203 117.363C429.029 112.119 425.391 107.232 419.986 106.718C417.225 106.455 414.343 106.894 411.675 107.534C410.459 107.825 408.645 108.187 407.559 108.839C406.196 109.657 406.01 111.574 404.726 109.98C403.02 113.195 401.315 116.41 399.609 119.624C401.306 119.008 404.77 116.394 406.625 116.664C409.335 117.059 409.891 120.994 409.928 123.032ZM139.032 44.3229C131.446 44.5465 123.518 46.1617 116.338 48.5627C114.554 49.1595 107.032 51.2819 108.616 54.3586C109.663 56.3922 115.309 53.5185 117.015 53.0393C124.33 50.9852 131.862 49.6305 139.354 48.3942C141.168 48.095 147.322 48.1246 147.64 45.7466C148.029 42.845 141.173 44.3196 139.032 44.3229ZM345.465 375.273C341.353 375.775 337.406 375.588 333.29 375.084C329.827 374.66 326.3 373.242 322.854 373.242C322.854 376.931 322.604 376.954 326.496 377.743C329.212 378.295 331.967 378.604 334.712 378.988C339.546 379.664 344.912 381.561 349.804 380.586C349.685 379.946 349.311 375.623 348.804 375.196C348.518 374.956 345.88 375.277 345.465 375.273ZM279.018 102.35C280.167 103.082 282.81 106.003 284.179 106.055C283.69 102.673 279.917 96.7856 275.585 98.8753C274.524 99.3878 272.293 101.939 273.302 103.065C273.841 103.666 277.609 102.354 279.018 102.35ZM238.934 132.432C238.976 131.842 239.019 131.253 239.062 130.664C237.472 131.599 235.504 132.041 234.375 133.547C235.731 134.148 237.086 134.75 238.443 135.352C238.607 134.378 238.77 133.405 238.934 132.432ZM364.135 222.208C371.646 224.839 378.532 228.352 384.061 234.315C388.84 239.471 391.086 248.557 392.252 255.316C395.139 272.042 389.569 287.546 385.896 303.547C384.033 311.664 381.251 319.475 378.647 327.382C376.373 334.287 374.423 341.517 371.284 348.083C368.623 353.65 365.222 359.139 362.881 364.914C361.621 368.022 359.579 378.687 354.797 375.337C353.492 378.749 353.175 378.459 354.57 380.829C355.58 382.545 359.004 384.927 360.621 386.324C364.928 390.048 370.383 393.117 375.435 395.724C384.69 400.501 394.61 404.074 404.14 408.428C408.353 410.355 412.922 412.63 411.977 418.142C411.185 422.762 408.511 426.267 404.341 428.322C400.426 430.253 394.826 431.743 390.519 432.349C387.964 432.708 387.378 431.645 385.294 431.277C382.976 430.869 380.27 431.659 377.878 431.638C367.14 431.545 357.738 428.843 349.061 422.616C345.96 420.391 341.395 414.354 337.337 414.355C335.263 414.355 335.701 415.615 333.876 416.355C331.624 417.267 327.744 415.545 325.531 415.141C320.814 414.28 316.018 413.406 312.878 409.344C309.482 404.954 310.689 399.516 312.148 394.641C313.793 389.145 316.56 383.57 317.736 377.991C318.023 376.634 318.286 374.105 317.996 372.724C317.543 370.582 315.381 369.304 315.316 366.985C315.296 366.279 316.306 365.348 316.482 364.62C316.872 363.021 316.812 361.361 316.972 359.733C317.259 356.83 317.921 354.047 318.378 351.178C319.416 344.647 321.464 338.822 323.446 332.53C325.369 326.423 327.2 321.879 330.918 316.592C332.843 313.853 339.282 304.097 336.138 301.289C331.834 309.743 326.801 316.336 320.215 323.066C315.177 328.214 310.251 335.134 303.946 338.8C297.014 342.831 288.543 345.203 280.887 347.334C277.246 348.347 274.225 350.595 270.3 351.011C266.046 351.461 261.716 350.93 257.55 349.982C256.377 349.715 252.995 347.913 251.934 348.028C250.37 348.198 248.122 350.984 246.406 351.496C242.23 352.741 239.378 350.362 236.211 348.163C232.773 345.776 231.733 345.183 227.766 344.895C222.908 344.544 218.182 342.831 213.403 341.783C205.001 339.939 197.86 336.203 190.222 332.293C181.468 327.811 173.979 321.629 167.381 314.327C157.68 303.592 144.171 273.846 160.017 263.431C150.689 262.164 142.145 258.091 141.008 247.532C140.414 242.007 141.532 235.888 142.921 230.562C143.555 228.13 144.311 225.714 145.036 223.307C145.581 222.495 145.87 221.605 145.9 220.639C146.234 219.387 145.752 218.763 144.452 218.769C141.995 215.896 140.148 213.36 139.651 209.281C139.495 207.988 139.355 206.006 140.275 204.907C140.7 204.465 141.214 204.17 141.814 204.022C143.253 204.104 143.66 203.395 143.034 201.894C143.733 199.769 142.697 198.112 145.331 197.225C146.176 197.404 147.016 197.601 147.854 197.814C148.923 198.301 149.618 197.948 149.941 196.758C152.423 195.786 151.278 194.35 154.65 195.6C156.692 196.356 158.633 197.659 160.12 199.245C161.984 198.049 157.744 190.651 157.602 188.291C157.267 182.728 159.567 178.128 162.559 173.558C168.376 164.678 176.495 157.042 184.501 150.171C199.836 137.013 215.947 124.487 233.262 114.004C226.119 109.043 217.774 107.698 209.274 110.004C201.438 112.13 195.087 115.99 187.874 119.367C181.192 122.495 174.099 123.779 171.968 115.245C169.581 105.686 177.197 102.137 184.029 97.8501C182.323 96.5777 176.708 97.4873 174.583 97.6378C169.852 97.9722 165.328 99.0404 160.731 99.9849C158.526 100.437 156.5 100.336 154.316 100.779C151.069 101.438 147.678 102.177 144.393 103.116C136.576 105.351 128.818 108.744 122.064 113.315C116.226 117.264 112.176 122.84 107.473 127.976C102.109 133.832 96.9693 139.594 89.0171 141.738C85.2938 142.742 80.9258 143.653 78.2857 140.327C75.8294 137.235 75.6927 133.508 75.7733 129.726C75.9507 121.374 79.9858 112.349 84.6793 105.524C89.774 98.1153 96.5974 93.8726 103.045 87.9092C93.7261 88.5755 84.72 93.4878 76.1501 96.8828C74.3466 97.5979 72.526 98.4009 70.7127 99.0623C68.779 99.7677 67.498 99.3357 65.6457 99.6587C61.4177 100.397 57.7863 102.178 53.6739 99.3373C45.8934 93.9637 53.6885 83.0319 59.0453 79.6775C66.5067 75.0061 74.0976 71.0725 82.3175 67.7401C77.8673 62.9132 81.668 56.0248 85.7699 52.6005C90.9598 48.2674 97.5683 45.7844 103.822 43.465C108.768 41.6304 113.625 39.869 118.763 38.765C124.163 37.6049 130.479 35.8321 135.959 36.0022C141.099 36.1616 145.657 35.2561 150.862 35.1113C155.193 34.9909 159.534 35.095 163.865 34.9828C175.517 34.6817 187.212 35.4676 198.599 36.3056C189.577 9.92172 249.007 18.0696 261.686 21.5158C273.209 24.648 286.411 28.2814 296.089 35.7133C300.19 38.861 304.084 42.4399 307.722 46.1123C313.089 51.5307 316.061 58.6266 318.899 65.6305C326.1 62.1029 332.986 58.2588 340.864 56.5097C348.362 54.8459 356.041 52.5907 363.582 51.3338C369.316 50.3778 377.638 49.7294 382.463 53.7777C387.703 58.175 390.434 65.0179 393.562 70.878C408.586 56.6227 425.343 46.223 446.763 46.9145C467.723 47.5914 481.507 65.6916 484.048 85.3058C486.846 106.918 477.219 129.502 464.169 146.238C458.318 153.744 452.262 160.993 444.386 166.593C440.48 169.369 436.36 172.41 432.077 174.577C429.942 175.658 427.607 176.634 425.365 177.466C424.353 177.841 423.311 178.217 422.259 178.472C419.254 179.201 419.838 178.228 418.72 180.858C417.814 182.994 417.925 186.668 417.537 189.012C417.093 191.691 416.83 194.406 416.182 197.049C415.06 201.629 413.891 206.097 412.485 210.57C409.824 219.035 406.243 227.567 401.856 235.289C405.576 236.905 410.786 237.067 414.762 237.557C419.064 238.087 423.373 239.2 427.843 240.449C436.798 242.953 444.801 245.067 453.317 248.816C462.158 252.708 470.038 258.519 478.551 263.144C486.379 267.398 494.292 272.725 501.562 277.831C503.292 279.046 504.363 280.102 505.74 281.64C507.149 283.212 507.597 283.519 509.28 284.881C510.04 285.495 512.247 288.591 513.114 288.705C514.666 288.911 514.427 287.752 515.645 286.135C518.19 282.759 521.738 280.143 524.264 276.681C526.371 273.795 528.569 270.872 530.821 268.389C536.271 262.382 540.787 255.724 544.662 248.522C546.679 244.773 548.802 241.205 550.992 237.667C553.172 234.144 557.049 229.495 561.391 229.703C561.041 227.909 559.932 227.61 561.846 226.514C563.079 225.807 565.479 226.946 566.43 227.663C568.945 229.564 569.056 233.251 568.898 236.02C568.489 243.158 566.996 250.203 564.914 256.952C562.412 265.064 559.276 272.222 555.854 279.965C553.129 286.133 549.746 294.29 542.966 297.105C547.519 303.606 545.332 308.904 542.289 315.806C540.065 320.852 537.127 326.066 532.653 329.405C527.608 333.17 522.138 329.976 516.862 327.488C513.676 325.985 503.932 322.439 505.914 317.814C503.48 317.489 501.949 315.721 499.734 315.177C497.388 314.601 497.791 315.553 495.31 315.911C493.407 316.184 490.561 314.48 488.77 313.87C485.777 312.852 482.793 311.809 479.805 310.779C471.394 307.882 463.124 305.03 454.63 302.709C438.826 298.39 422.826 295.941 407.077 292.085C403.92 291.312 400.781 290.566 397.494 289.946C396.815 289.819 393.294 289.623 392.866 288.896C392.116 287.623 394.42 280.498 394.618 279.046C395.916 269.514 395.492 259.079 393.663 249.656C392.904 245.738 389.512 240.666 389.541 236.842C389.561 234.277 391.835 231.476 393.169 229.152C396.47 223.407 399.929 217.199 402.375 211.22C406.118 202.074 408.412 191.75 410.066 181.954C410.927 176.847 411.929 171.311 412.164 166.145C412.343 162.207 412.02 158.077 412.591 154.044C410.412 154.25 407.328 155.38 405.365 154.171C402.886 152.645 402.22 148.29 402.537 145.689C394.049 147.171 394.331 139.121 394.856 132.827C379.516 132.827 399.162 110.032 401.616 105.136C402.744 102.886 402.711 105.414 402.213 101.933C401.994 100.403 400.948 98.7076 400.356 97.301C399.067 94.2298 397.673 91.2057 396.185 88.2265C393.039 81.9335 389.476 75.853 385.587 69.9904C382.087 72.4295 378.932 75.3168 376.008 78.4149C377.883 73.5107 383.613 67.435 381.162 61.8662C378.891 56.7041 371.305 57.0621 366.825 58.0058C354.651 60.5726 342.976 64.3109 331.378 68.6391C334.971 70.699 340.471 69.1077 344.04 67.5326C348.46 65.5817 353.213 63.5348 357.977 62.5016C362.131 61.6001 367.587 61.9077 366.387 67.5034C365.414 72.0374 360.979 76.4037 358.053 79.7939C351.606 87.2632 343.522 93.0452 335.581 98.8223C327.045 105.033 318.82 111.781 310.176 117.811C294.551 128.713 277.751 138.187 261.607 148.364C253.218 153.651 243.712 157.906 234.615 161.825C224.607 166.136 215.012 170.751 204.628 174.156C198.862 176.047 193.147 177.604 187.481 179.756C183.93 181.104 177.745 183.806 175.399 179.802C170.633 171.671 187.879 160.976 192.605 156.005C195.866 159.171 179.788 170.97 181.046 175.58C182.035 179.203 185.859 174.525 187.706 173.538C190.69 171.941 194.225 171.139 197.224 169.318C203.376 165.583 210.67 161.276 212.074 153.556C211.097 152.524 211.109 151.572 212.111 150.699C212.557 150.169 212.911 149.586 213.171 148.951C213.609 147.738 213.785 146.218 214.02 144.932C214.712 141.129 212.974 137.569 214.598 133.848C205.118 141.032 196.004 149.146 187.004 156.923C178.932 163.899 170.508 173.032 167.542 183.441C167.162 184.775 166.53 186.288 166.599 187.695C166.735 190.458 167.01 189.863 169.236 190.751C171.463 191.639 174.705 191.563 177.099 191.657C178.464 191.71 184.559 190.265 183.347 193.26C182.649 194.986 178.423 194.921 176.91 195.081C173.114 195.482 171.055 195.07 172.853 199.186C173.66 201.03 175.293 202.28 176.575 203.708C180.141 207.68 182.078 213.772 184.884 218.438C188.08 223.754 191.594 228.81 195.327 233.761C196.868 235.804 198.927 239.643 201.062 241.101C203.056 242.462 200.71 242.35 204.022 241.796C205.466 241.556 206.775 240.617 208.156 240.281C216.413 238.269 224.901 236.001 233.441 233.518C244.363 230.342 255.826 227.634 266.248 223.06C275.584 218.961 284.85 214.082 294.283 209.932C297.038 208.72 299.79 207.917 301.931 205.687C304.516 202.997 306.656 199.474 309.039 196.582C313.093 191.662 316.83 186.658 321.194 181.995C324.442 178.526 330.198 172.077 334.781 170.693C343.488 168.062 338.827 181.325 337.702 184.677C339.749 185.141 340.825 182.516 343.227 183.271C346.103 184.176 346.401 188.001 346.761 190.398C346.856 191.037 345.992 192.23 346.255 192.8C346.344 192.994 348.221 194.104 348.583 194.618C349.897 196.487 349.639 198.759 349.141 200.774C346.564 211.212 337.405 218.834 330.668 226.534C333.682 225.964 335.916 224.246 338.761 223.395C341.431 222.596 344.115 222.638 346.806 222.409C349.624 222.169 352.331 221.115 355.214 221.061C358.239 221.005 361.135 221.867 364.135 222.208Z" fill="#2C55FF"/>
<path fill-rule="evenodd" clip-rule="evenodd" d="M45.5488 128.32C43.8877 129.406 43.4194 130.471 43.3621 132.976C43.3391 134.004 43.41 137.836 44.8457 137.691C46.1931 137.556 45.5488 129.638 45.5488 128.32ZM36.9679 134.563C37.7419 126.534 40.679 118.372 47.5883 113.37C49.297 112.132 51.2299 112.176 53.1026 111.396C54.2281 110.927 56.0063 108.748 57.284 109.006C61.9876 109.957 56.5535 116.207 55.7577 117.851C53.2917 122.944 53.4583 127.42 53.5319 132.914C53.588 137.091 54.4557 144.131 52.3504 147.91C50.1061 151.935 45.2386 149.322 42.5216 146.939C39.0924 143.932 36.5026 139.143 36.9679 134.563Z" fill="#5FADFF"/>
<path fill-rule="evenodd" clip-rule="evenodd" d="M119.537 158.286C119.537 162.766 123.173 159.733 123.043 156.547C122.853 151.855 119.367 154.744 119.537 158.286ZM138.867 133.521C134.887 137.1 131.818 139.108 131.051 144.611C130.47 148.78 131.047 152.908 131.072 157.107C131.114 164.145 125.43 171.545 119.314 163.477C114.853 157.592 116.453 148.339 120.091 142.425C122 139.322 124.725 136.252 127.873 134.318C130.241 132.863 136.902 130 138.867 133.521Z" fill="#3B82FF"/>
<path fill-rule="evenodd" clip-rule="evenodd" d="M83.2918 241.992C82.8303 243.084 81.7474 247.54 83.957 246.532C85.9079 245.642 84.644 242.688 83.2918 241.992ZM71.6155 228.233C71.2744 226.557 71.4134 216.051 74.3071 216.839C76.5801 217.457 76.9556 222.834 77.8816 224.706C81.3298 231.675 89.244 236.016 91.9732 243.209C95.0195 251.243 85.8094 251.492 80.9223 248.239C75.1356 244.387 71.7873 234.955 71.6155 228.233Z" fill="#3B82FF"/>
<path fill-rule="evenodd" clip-rule="evenodd" d="M64.5214 185.156C65.7773 183.461 65.9043 182.555 65.1884 181.055C64.2733 182.05 64.4358 183.473 64.5214 185.156ZM65.4302 192.741C58.8832 193.474 58.5555 181.409 59.6768 177.266C60.5696 173.967 62.4892 170.422 64.4652 167.734C64.8644 167.192 68.6497 162.317 69.3917 162.305C72.239 162.26 71.4566 165.478 71.1494 166.675C70.1821 170.448 69.7988 173.602 70.0591 177.786C70.3384 182.263 72.458 192.89 65.4302 192.741Z" fill="#5FADFF"/>
<path fill-rule="evenodd" clip-rule="evenodd" d="M362.695 88.2527C353.334 96.1036 344.446 104.603 334.267 111.471C329.286 114.831 324.079 117.805 319.108 121.22C316.577 122.96 313.994 124.517 311.186 125.796C308.705 126.925 307.083 127.072 309.141 124.391C310.517 122.6 313.601 121.352 315.475 120.078C318.359 118.118 321.083 115.942 324.117 114.203C329.466 111.134 334.782 108.657 339.712 104.894C344.088 101.555 348.603 98.2943 352.78 94.7457C354.57 93.2239 360.509 86.2372 362.695 88.2527Z" fill="#2C55FF"/>
<path fill-rule="evenodd" clip-rule="evenodd" d="M362.885 116.602C367.095 120.203 356.561 130.069 354.159 132.305C351.626 134.663 348.836 136.767 346.081 138.856C345.111 139.592 339.82 144.515 338.477 144.118C335.828 143.333 339.306 140.139 340.211 139.306C343.137 136.609 346.125 133.99 348.985 131.22C351.565 128.724 354.359 126.412 356.854 123.836C358.875 121.748 360.573 118.21 362.885 116.602Z" fill="#2C55FF"/>
<path fill-rule="evenodd" clip-rule="evenodd" d="M50.9762 261.771C49.877 259.224 47.9084 262.052 48.9064 263.324C49.8503 264.528 50.8356 262.26 50.9762 261.771ZM44.5309 256.741C45.1202 252.996 46.482 250.915 49.9956 254.112C52.41 256.309 57.2657 262.555 56.805 265.96C56.2001 270.427 51.2805 269.16 48.7303 266.824C46.1162 264.43 44.9622 260.062 44.5309 256.741Z" fill="#5FADFF"/>
<path fill-rule="evenodd" clip-rule="evenodd" d="M52.2304 330.454C47.9262 330.126 44.2542 326.822 42.4263 322.949C40.8884 319.693 39.4328 314.443 44.8358 316.155C48.3571 317.271 61.9319 330.979 52.2304 330.454Z" fill="#5FADFF"/>
<path fill-rule="evenodd" clip-rule="evenodd" d="M104.393 309.223C101.067 309.98 97.7763 307.789 95.7309 305.319C94.4584 303.781 91.4962 298.387 92.9886 296.167C95.0688 293.07 98.2097 299.295 99.293 300.527C100.992 302.456 106.549 306.146 104.393 309.223Z" fill="#5FADFF"/>
<path fill-rule="evenodd" clip-rule="evenodd" d="M107.389 225C104.781 223.79 102.361 222.334 101.312 219.444C100.645 217.603 100.085 212.084 103.047 212.109C106.472 212.14 114.315 224.447 107.389 225Z" fill="#5FADFF"/>
<path fill-rule="evenodd" clip-rule="evenodd" d="M89.1088 167.58C92.5999 167.517 93.4265 169.442 93.912 172.208C94.2415 174.086 95.8408 180.459 94.1798 181.764C91.8069 183.63 88.032 179.355 87.2689 177.677C85.6961 174.223 87.8708 170.825 89.1088 167.58Z" fill="#5397DF"/>
<path fill-rule="evenodd" clip-rule="evenodd" d="M149.096 358.675C150.796 359.448 154.664 361.163 153.186 363.824C151.641 366.608 147.205 363.903 145.548 362.687C144.854 362.177 140.446 358.845 140.631 357.727C141.019 355.352 147.095 358.452 149.096 358.675Z" fill="#3B82FF"/>
<path fill-rule="evenodd" clip-rule="evenodd" d="M37.1053 184.868C38.2669 187.777 39.5744 197.769 33.4577 192.373C31.591 190.726 31.3093 188.669 31.9525 186.409C32.8824 183.132 34.2358 183.781 37.1053 184.868Z" fill="#3B82FF"/>
<path fill-rule="evenodd" clip-rule="evenodd" d="M361.252 147.656C359.898 144.889 363.242 143.104 365.029 141.321C366.196 140.156 371.102 133.837 372.71 134.194C376.019 134.929 362.879 146.422 361.252 147.656Z" fill="#2C55FF"/>
<path fill-rule="evenodd" clip-rule="evenodd" d="M89.0648 348.097C92.2564 347.585 93.001 351.13 95.0573 352.675C95.939 353.338 98.9662 353.921 98.3572 355.328C96.7574 359.023 88.9084 350.582 89.0648 348.097Z" fill="#5FADFF"/>
<path fill-rule="evenodd" clip-rule="evenodd" d="M116.016 264.371C118.209 263.452 124.541 268.385 122.723 270.516C120.005 273.704 116.17 266.115 116.016 264.371Z" fill="#5FADFF"/>
<path fill-rule="evenodd" clip-rule="evenodd" d="M162.256 335.734C160.657 335.893 153.909 333.771 156.409 330.931C158.164 328.937 162.83 333.928 162.256 335.734Z" fill="#3B82FF"/>
<path fill-rule="evenodd" clip-rule="evenodd" d="M81.4453 322.106C79.8577 322.741 74.1321 321.435 75.9323 318.949C77.6472 316.581 81.4477 320.141 81.4453 322.106Z" fill="#3B82FF"/>
<path fill-rule="evenodd" clip-rule="evenodd" d="M128.32 332.834C130.176 332.641 131.517 333.761 131.836 335.656C129.515 335.987 128.798 335.434 128.32 332.834Z" fill="#5FADFF"/>
<path fill-rule="evenodd" clip-rule="evenodd" d="M369.727 57.7092C370.511 57.7127 371.294 57.7168 372.07 57.7204C371.285 57.7163 370.506 57.7127 369.727 57.7092Z" fill="#2C55FF"/>
<path fill-rule="evenodd" clip-rule="evenodd" d="M357.422 220.896C356.25 220.897 355.077 220.9 353.906 220.901C355.078 220.898 356.251 220.897 357.422 220.896Z" fill="#2C55FF"/>
<path fill-rule="evenodd" clip-rule="evenodd" d="M197.542 29.8828C197.488 31.056 197.434 32.2293 197.379 33.3984C197.432 32.2242 197.487 31.053 197.542 29.8828Z" fill="#2C55FF"/>
<path fill-rule="evenodd" clip-rule="evenodd" d="M560.628 229.102C561.002 230.405 560.455 230.621 558.984 229.749C559.532 229.533 560.08 229.317 560.628 229.102Z" fill="#2C55FF"/>
<path fill-rule="evenodd" clip-rule="evenodd" d="M527.344 331.342C527.932 331.346 528.52 331.35 529.102 331.353C528.512 331.35 527.928 331.346 527.344 331.342Z" fill="#2C55FF"/>
<path fill-rule="evenodd" clip-rule="evenodd" d="M416.016 237.026C415.033 237.775 414.056 237.881 413.086 236.987C414.063 237.001 415.039 237.014 416.016 237.026Z" fill="#2C55FF"/>
<path fill-rule="evenodd" clip-rule="evenodd" d="M394.081 137.109C394.056 138.088 394.031 139.065 394.005 140.039C394.03 139.06 394.056 138.085 394.081 137.109Z" fill="#2C55FF"/>
<path fill-rule="evenodd" clip-rule="evenodd" d="M444.727 46.6991C443.75 46.6985 442.773 46.6973 441.797 46.6962C442.774 46.3305 443.751 46.4507 444.727 46.6991Z" fill="#2C55FF"/>
<path fill-rule="evenodd" clip-rule="evenodd" d="M158.203 34.7772C157.227 34.8346 156.25 34.8921 155.273 34.9495C156.25 34.8921 157.227 34.8346 158.203 34.7772Z" fill="#2C55FF"/>
<path fill-rule="evenodd" clip-rule="evenodd" d="M182.227 34.9629C181.445 34.8967 180.663 34.8299 179.883 34.7637C180.663 34.8299 181.445 34.8967 182.227 34.9629Z" fill="#2C55FF"/>
<path fill-rule="evenodd" clip-rule="evenodd" d="M195.117 35.8915C194.336 36.1827 193.555 36.355 192.773 35.8956C193.555 35.8944 194.336 35.8927 195.117 35.8915Z" fill="#2C55FF"/>
<path fill-rule="evenodd" clip-rule="evenodd" d="M125.391 37.4958C124.413 37.6945 123.437 37.8931 122.461 38.09C123.438 37.8931 124.414 37.6945 125.391 37.4958Z" fill="#2C55FF"/>
<path fill-rule="evenodd" clip-rule="evenodd" d="M394.669 275.977C394.642 276.564 394.615 277.15 394.589 277.734C394.617 277.147 394.642 276.562 394.669 275.977Z" fill="#2C55FF"/>
<path fill-rule="evenodd" clip-rule="evenodd" d="M71.7606 228.516C71.7723 228.907 71.7835 229.299 71.794 229.688C71.7817 229.295 71.7718 228.906 71.7606 228.516Z" fill="#2C55FF"/>
<path fill-rule="evenodd" clip-rule="evenodd" d="M564.258 226.413L561.328 226.428C562.302 225.701 563.28 225.793 564.258 226.413Z" fill="#2C55FF"/>
<path fill-rule="evenodd" clip-rule="evenodd" d="M363.867 222.264C363.085 222.135 362.304 222.006 361.523 221.877C362.304 222.006 363.086 222.135 363.867 222.264Z" fill="#2C55FF"/>
<path fill-rule="evenodd" clip-rule="evenodd" d="M149.414 358.586C148.437 358.397 147.461 358.205 146.484 358.015L149.414 358.586Z" fill="#2C55FF"/>
<path fill-rule="evenodd" clip-rule="evenodd" d="M346.609 190.43C346.591 189.843 346.573 189.256 346.555 188.672C346.573 189.259 346.591 189.844 346.609 190.43Z" fill="#2C55FF"/>
<path fill-rule="evenodd" clip-rule="evenodd" d="M161.133 34.9713C160.547 34.8993 159.961 34.8272 159.375 34.7551C159.961 34.8272 160.547 34.8993 161.133 34.9713Z" fill="#2C55FF"/>
<path fill-rule="evenodd" clip-rule="evenodd" d="M257.227 20.4811C256.641 20.3036 256.054 20.126 255.469 19.9485C256.055 20.126 256.641 20.3036 257.227 20.4811Z" fill="#2C55FF"/>
<path fill-rule="evenodd" clip-rule="evenodd" d="M326.953 415.687C327.345 415.711 327.738 415.735 328.125 415.758C327.731 415.734 327.342 415.71 326.953 415.687Z" fill="#2C55FF"/>
<path fill-rule="evenodd" clip-rule="evenodd" d="M58.0078 101.051C58.596 101.066 59.1843 101.082 59.7656 101.098C59.1744 101.082 58.5911 101.066 58.0078 101.051Z" fill="#2C55FF"/>
<path fill-rule="evenodd" clip-rule="evenodd" d="M451.172 47.2711C450.195 47.2025 449.219 47.134 448.242 47.0648C449.22 47.134 450.195 47.2025 451.172 47.2711Z" fill="#2C55FF"/>
<path fill-rule="evenodd" clip-rule="evenodd" d="M142.383 44.5277C141.012 44.5301 139.644 44.5324 138.281 44.5347C139.654 44.5324 141.019 44.5301 142.383 44.5277Z" fill="#2C55FF"/>
<path fill-rule="evenodd" clip-rule="evenodd" d="M419.21 165.234C419.228 166.212 419.247 167.19 419.266 168.164C419.249 167.185 419.231 166.21 419.21 165.234Z" fill="#2C55FF"/>
<path fill-rule="evenodd" clip-rule="evenodd" d="M347.461 375.019C346.677 375.007 345.894 374.994 345.117 374.981C345.903 374.992 346.681 375.006 347.461 375.019Z" fill="#2C55FF"/>
<path fill-rule="evenodd" clip-rule="evenodd" d="M430.664 64.5667C431.836 64.4367 433.007 64.3066 434.18 64.1765C433.055 65.1714 431.84 64.5093 430.664 64.5667Z" fill="#2C55FF"/>
<path fill-rule="evenodd" clip-rule="evenodd" d="M341.016 375.326C340.428 375.303 339.841 375.282 339.258 375.26C339.848 375.283 340.432 375.304 341.016 375.326Z" fill="#2C55FF"/>
<path fill-rule="evenodd" clip-rule="evenodd" d="M320.756 385.547C320.786 386.525 320.816 387.503 320.845 388.477C320.817 387.496 320.786 386.522 320.756 385.547Z" fill="#2C55FF"/>
<path fill-rule="evenodd" clip-rule="evenodd" d="M410.156 100.546C410.938 100.473 411.719 100.4 412.5 100.328C411.787 100.878 410.949 100.556 410.156 100.546Z" fill="#2C55FF"/>
<path fill-rule="evenodd" clip-rule="evenodd" d="M154.102 256.426C154.883 256.57 155.665 256.713 156.445 256.856C155.664 256.713 154.883 256.57 154.102 256.426Z" fill="#2C55FF"/>
<path fill-rule="evenodd" clip-rule="evenodd" d="M275.977 102.249C276.951 101.418 277.928 101.508 278.906 102.239C277.929 102.242 276.953 102.245 275.977 102.249Z" fill="#2C55FF"/>
<path fill-rule="evenodd" clip-rule="evenodd" d="M239.313 131.836C239.341 131.445 239.368 131.054 239.398 130.664C239.371 131.055 239.342 131.446 239.313 131.836Z" fill="#2C55FF"/>
<path fill-rule="evenodd" clip-rule="evenodd" d="M409.851 120.703C409.859 121.486 409.867 122.268 409.876 123.047C409.868 122.262 409.86 121.483 409.851 120.703Z" fill="#2C55FF"/>
<path fill-rule="evenodd" clip-rule="evenodd" d="M151.338 243.182C152.624 243.618 155.21 244.935 156.708 244.76C157.907 244.62 158.896 243.162 160.052 243.164C163.167 243.168 162.589 246.768 161.084 248.701C157.015 253.928 147.922 248.26 151.338 243.182Z" fill="#2C55FF"/>
<path fill-rule="evenodd" clip-rule="evenodd" d="M164.049 224.414C168.296 225.51 166.181 234.852 162.611 235.494C158.407 236.251 157.674 228.655 158.505 225.91C160.668 227.195 159.329 231.781 162.055 230.513C163.789 229.706 163.525 225.976 164.049 224.414Z" fill="#2C55FF"/>
</svg>
